ADBE,Adobe Systems Incorporated,77.14,$38.44B,1986,Technology,Computer Software: Prepackaged Software
ALXN,Alexion Pharmaceuticals, Inc.,189.07,$38.22B,1996,Health Care
AMZN,Amazon.com, Inc.,373.24,$173.33B,1997,Consumer Services
AMOV,America Movil, S.A.B. de C.V.,20.45,$70.34B,n/a,Public Utilities
AAL,American Airlines Group, Inc.,55.19,$38.45B,n/a,Transportation
AMGN,Amgen Inc.,169.11,$128.33B,1983,Health Care,Biotechnology: Biological Products (No Diagnostic Substances)
AAPL,Apple Inc.,127.495,$742.63B,1980,Technology,Computer Manufacturing
AMAT,Applied Materials, Inc.,24.08,$29.59B,1972,Technology
ARMH,ARM Holdings plc,52.89,$24.9B,n/a,Technology,Semiconductors
ASML,ASML Holding N.V.,107.14,$46.38B,1995,Technology,Industrial Machinery/Components
ADP,Automatic Data Processing, Inc.,87.37,$41.51B,n/a,Technology
AVGO,Avago Technologies Limited,132.04,$33.88B,2009,Technology,Semiconductors
BIDU,Baidu, Inc.,214.57,$75.26B,2005,Technology
BIIB,Biogen Idec Inc.,433.65,$101.74B,n/a,Health Care,Biotechnology: Biological Products (No Diagnostic Substances)
BMRN,BioMarin Pharmaceutical Inc.,127.49,$20.29B,1999,Health Care,Major Pharmaceuticals
BRCM,Broadcom Corporation,44.88,$26.88B,1998,Technology,Semiconductors
CELG,Celgene Corporation,125.33,$100.34B,1987,Health Care,Major Pharmaceuticals
CERN,Cerner Corporation,73.82,$25.29B,1986,Technology,EDP Services
CHTR,Charter Communications, Inc.,188.18,$21.08B,n/a,Consumer Services
CSCO,Cisco Systems, Inc.,28.26,$144.26B,1990,Technology
CME,CME Group Inc.,99.67,$33.62B,2002,Finance,Investment Bankers/Brokers/Service
CTSH,Cognizant Technology Solutions Corporation,64.245,$39.16B,1998,Technology,EDP Services
CMCSA,Comcast Corporation,58.745,$150.38B,n/a,Consumer Services,Television Services
CMCSK,Comcast Corporation,58.5,$149.76B,n/a,Consumer Services,Television Services
COST,Costco Wholesale Corporation,151.31,$66.57B,n/a,Consumer Services,Department/Specialty Retail Stores
DTV,DIRECTV,86.05,$43.27B,n/a,Consumer Services,Telecommunications Equipment
DISH,DISH Network Corporation,74.38,$34.35B,1995,Consumer Services,Television Services
EBAY,eBay Inc.,57.875,$70.03B,1998,Miscellaneous,Business Services
ERIC,Ericsson,13.01,$42.14B,n/a,Technology,Radio And Television Broadcasting And Communications Equipment
ESRX,Express Scripts Holding Company,83.95,$61.02B,1992,Health Care,Medical/Nursing Services
FB,Facebook, Inc.,82.75,$231.62B,2012,Technology
GILD,Gilead Sciences, Inc.,101.44,$151.08B,1992,Health Care
GOOG,Google Inc.,557.99,$379.78B,2004,Technology,Computer Software: Programming
GOOGL,Google Inc.,563.67,$383.65B,n/a,Technology,Computer Software: Programming
ILMN,Illumina, Inc.,199.81,$28.73B,2000,Capital Goods
INTC,Intel Corporation,30.74,$145.58B,n/a,Technology,Semiconductors
INTU,Intuit Inc.,99.78,$27.61B,1993,Technology,Computer Software: Prepackaged Software
KRFT,Kraft Foods Group, Inc.,61.3,$36.04B,n/a,Consumer Non-Durables
LBTYA,Liberty Global plc,52.55,$46.62B,n/a,Consumer Services,Television Services
LBTYB,Liberty Global plc,53.62,$47.57B,n/a,Consumer Services,Television Services
LBTYK,Liberty Global plc,50.86,$45.12B,n/a,Consumer Services,Television Services
MAR,Marriott International,84.31,$23.32B,n/a,Consumer Services,Hotels/Resorts
MU,Micron Technology, Inc.,28.05,$30.22B,n/a,Technology
MSFT,Microsoft Corporation,42.285,$346.9B,1986,Technology,Computer Software: Prepackaged Software
MDLZ,Mondelez International, Inc.,34.66,$57.17B,n/a,Consumer Non-Durables
MNST,Monster Beverage Corporation,138.28,$23.52B,n/a,Consumer Non-Durables,Beverages (Production/Distribution)
MYL,Mylan N.V.,63.94,$24.19B,n/a,Health Care,Major Pharmaceuticals
NFLX,Netflix, Inc.,425.21,$25.72B,2002,Consumer Services
NXPI,NXP Semiconductors N.V.,105.32,$26.51B,2010,Technology,Semiconductors
ORLY,O&#39;Reilly Automotive, Inc.,214.97,$21.85B,1993,Consumer Services
PCAR,PACCAR Inc.,62.59,$22.2B,n/a,Capital Goods,Auto Manufacturing
QQQ,PowerShares QQQ Trust, Series 1,108.08,$40.04B,n/a,n/a
QCOM,QUALCOMM Incorporated,69.83,$115.19B,1991,Technology,Radio And Television Broadcasting And Communications Equipment
REGN,Regeneron Pharmaceuticals, Inc.,486.02,$49.87B,1991,Health Care
ROST,Ross Stores, Inc.,106.74,$22.25B,1985,Consumer Services
SHPG,Shire plc,250.57,$50.04B,n/a,Health Care,Major Pharmaceuticals
SIRI,Sirius XM Holdings Inc.,3.96,$22.1B,n/a,Consumer Services,Broadcasting
SBUX,Starbucks Corporation,97.76,$73.3B,1992,Consumer Services,Restaurants
TROW,T. Rowe Price Group, Inc.,82.83,$21.58B,1986,Finance
TSLA,Tesla Motors, Inc.,195.65,$24.61B,2010,Capital Goods
TXN,Texas Instruments Incorporated,58.525,$61.28B,n/a,Technology,Semiconductors
PCLN,The Priceline Group Inc. ,1176.32,$61.1B,1999,Miscellaneous,Business Services
FOX,Twenty-First Century Fox, Inc.,33.58,$71.4B,n/a,Consumer Services
FOXA,Twenty-First Century Fox, Inc.,34.46,$45.75B,n/a,Consumer Services
VRTX,Vertex Pharmaceuticals Incorporated,134.25,$32.5B,1991,Health Care,Major Pharmaceuticals
VIAB,Viacom Inc.,68.81,$24.44B,n/a,Consumer Services,Television Services
VOD,Vodafone Group Plc,33.15,$87.86B,n/a,Public Utilities,Telecommunications Equipment
WBA,Walgreens Boots Alliance, Inc.,87.36,$82.61B,n/a,Health Care
WDC,Western Digital Corporation,99.3,$22.94B,n/a,Technology,Electronic Components
WPPGY,WPP plc,116.29,$30.61B,n/a,Technology,Advertising
YHOO,Yahoo! Inc.,44.98,$42.11B,1996,Technology,EDP Services
